{
  "kind": "ReplicationController",
  "apiVersion": "v1",
  "metadata": {
    "name": "meteor-controller",
    "labels": {
      "name": "meteor"
    }
  },
  "spec": {
    "replicas": 2,
    "template": {
      "metadata": {
        "labels": {
          "name": "meteor"
        }
      },
      "spec": {
        "containers": [{
          "name": "meteor",
          "image": "vibrant-retina-125514/kuber-meteor:latest",
          "ports": [{
            "name": "http-server",
            "containerPort": 8080
          }]
        }]
      }
    }
  }
}
